{
  "__type__": "cc.AnimationClip",
  "_name": "stun",
  "_objFlags": 0,
  "_native": "",
  "_duration": 0.4166666666666667,
  "sample": 60,
  "speed": 0.4,
  "wrapMode": 2,
  "curveData": {
    "comps": {
      "cc.Sprite": {
        "spriteFrame": [
          {
            "frame": 0,
            "value": {
              "__uuid__": "8eabee80-7580-4d42-8d2f-def349d79bb5"
            }
          },
          {
            "frame": 0.03333333333333333,
            "value": {
              "__uuid__": "6c014e78-f945-4436-bb82-bf0f4a2a4baf"
            }
          },
          {
            "frame": 0.06666666666666667,
            "value": {
              "__uuid__": "d983ff00-153d-4b65-8b36-5c09555f6050"
            }
          },
          {
            "frame": 0.1,
            "value": {
              "__uuid__": "2f98a3a7-d657-4989-b580-3b189d1e5bc7"
            }
          },
          {
            "frame": 0.13333333333333333,
            "value": {
              "__uuid__": "ef6d6319-5e25-4c6a-b657-2febeb3deddd"
            }
          },
          {
            "frame": 0.16666666666666666,
            "value": {
              "__uuid__": "d4b63c62-842f-475e-9fa4-cec42121fc3c"
            }
          },
          {
            "frame": 0.2,
            "value": {
              "__uuid__": "0bef9fab-ec32-49ed-825b-01144f929ca9"
            }
          },
          {
            "frame": 0.23333333333333334,
            "value": {
              "__uuid__": "8ede6b72-c4cf-48c0-8234-906abd2b37cb"
            }
          },
          {
            "frame": 0.26666666666666666,
            "value": {
              "__uuid__": "4e3be948-8b9a-4d75-8f23-311d172311b5"
            }
          },
          {
            "frame": 0.3,
            "value": {
              "__uuid__": "b0075052-8862-4be2-9928-294de34afdfe"
            }
          },
          {
            "frame": 0.3333333333333333,
            "value": {
              "__uuid__": "080dc0a0-ecb3-48b9-8c91-bdab4129c335"
            }
          },
          {
            "frame": 0.36666666666666664,
            "value": {
              "__uuid__": "e19b191c-d6ae-46e3-8006-f35384cbbba7"
            }
          },
          {
            "frame": 0.4,
            "value": {
              "__uuid__": "2ca3ddfd-b8aa-4b0b-9483-9a8d65b39bf7"
            }
          }
        ]
      }
    }
  },
  "events": []
}