{
  "__type__": "cc.AnimationClip",
  "_name": "run",
  "_objFlags": 0,
  "_native": "",
  "_duration": 0.38333333333333336,
  "sample": 60,
  "speed": 0.4,
  "wrapMode": 2,
  "curveData": {
    "comps": {
      "cc.Sprite": {
        "spriteFrame": [
          {
            "frame": 0,
            "value": {
              "__uuid__": "87a3cc5f-a08e-4c48-93e3-018eb3186e9e"
            }
          },
          {
            "frame": 0.03333333333333333,
            "value": {
              "__uuid__": "c3558ace-1bc4-4bf8-b67a-05f9eaf0d997"
            }
          },
          {
            "frame": 0.06666666666666667,
            "value": {
              "__uuid__": "ff80365c-59e3-4f7e-b533-791f3e1c947d"
            }
          },
          {
            "frame": 0.1,
            "value": {
              "__uuid__": "993e639c-1770-4d0a-b4d8-1f02151de42b"
            }
          },
          {
            "frame": 0.13333333333333333,
            "value": {
              "__uuid__": "b7205c21-3d86-4283-ad71-4c5fd8b511a5"
            }
          },
          {
            "frame": 0.16666666666666666,
            "value": {
              "__uuid__": "75b910a8-e176-4bc9-a118-2b1551d33f7c"
            }
          },
          {
            "frame": 0.2,
            "value": {
              "__uuid__": "7728a42a-731f-4a65-99a7-614ea387a220"
            }
          },
          {
            "frame": 0.23333333333333334,
            "value": {
              "__uuid__": "44216e72-115f-49c9-a75c-7590e713e334"
            }
          },
          {
            "frame": 0.26666666666666666,
            "value": {
              "__uuid__": "82cb1d04-159f-4184-9ee8-a7dcb6b8a263"
            }
          },
          {
            "frame": 0.3,
            "value": {
              "__uuid__": "6fcbd598-b435-40f6-ac10-b7bed9d845df"
            }
          },
          {
            "frame": 0.3333333333333333,
            "value": {
              "__uuid__": "3b0f5051-1642-4dea-893c-943e117bcbb6"
            }
          },
          {
            "frame": 0.36666666666666664,
            "value": {
              "__uuid__": "5d94a523-b132-4535-816d-2f52317cf353"
            }
          }
        ]
      }
    }
  },
  "events": []
}