{
  "__type__": "cc.AnimationClip",
  "_name": "idle",
  "_objFlags": 0,
  "_native": "",
  "_duration": 0.25,
  "sample": 60,
  "speed": 0.4,
  "wrapMode": 2,
  "curveData": {
    "comps": {
      "cc.Sprite": {
        "spriteFrame": [
          {
            "frame": 0,
            "value": {
              "__uuid__": "ac5df771-6347-445d-9152-2cbe6b39a917"
            }
          },
          {
            "frame": 0.03333333333333333,
            "value": {
              "__uuid__": "907cb5ac-c9d1-4cae-9b26-81f8d8975408"
            }
          },
          {
            "frame": 0.06666666666666667,
            "value": {
              "__uuid__": "065963d1-cacb-43ba-a3b7-66e4e97c0d4d"
            }
          },
          {
            "frame": 0.1,
            "value": {
              "__uuid__": "6229ff14-b7e1-4498-b8a0-6d515f93ef08"
            }
          },
          {
            "frame": 0.13333333333333333,
            "value": {
              "__uuid__": "ecd1c1e2-6e69-447d-9cbb-86548f0fda0a"
            }
          },
          {
            "frame": 0.16666666666666666,
            "value": {
              "__uuid__": "dca06d68-af5c-4261-969c-ec0aa64a8fa6"
            }
          },
          {
            "frame": 0.2,
            "value": {
              "__uuid__": "3acb5108-1b6a-4296-ade8-2e36fb542cc5"
            }
          },
          {
            "frame": 0.23333333333333334,
            "value": {
              "__uuid__": "24213c5a-ab28-459a-9cb7-7ff9970e3f5d"
            }
          }
        ]
      }
    }
  },
  "events": []
}