{
  "__type__": "cc.AnimationClip",
  "_name": "fall",
  "_objFlags": 0,
  "_native": "",
  "_duration": 0.016666666666666666,
  "sample": 60,
  "speed": 1,
  "wrapMode": 2,
  "curveData": {
    "comps": {
      "cc.Sprite": {
        "spriteFrame": [
          {
            "frame": 0,
            "value": {
              "__uuid__": "8e95d904-e368-4ac5-b193-cac74dcc2dc2"
            }
          }
        ]
      }
    }
  },
  "events": []
}