{
  "__type__": "cc.AnimationClip",
  "_name": "die",
  "_objFlags": 0,
  "_native": "",
  "_duration": 0.35,
  "sample": 60,
  "speed": 0.4,
  "wrapMode": 1,
  "curveData": {
    "comps": {
      "cc.Sprite": {
        "spriteFrame": [
          {
            "frame": 0,
            "value": {
              "__uuid__": "1dc15813-5bb1-49a8-ba2f-ab6fa8269c36"
            }
          },
          {
            "frame": 0.03333333333333333,
            "value": {
              "__uuid__": "1baef118-600d-4f9f-a740-85f6c6c82732"
            }
          },
          {
            "frame": 0.06666666666666667,
            "value": {
              "__uuid__": "5eaac428-cda4-4eaa-80a4-5db2c197dfe2"
            }
          },
          {
            "frame": 0.13333333333333333,
            "value": {
              "__uuid__": "ee27163c-234e-4642-8bab-69a3131bce38"
            }
          },
          {
            "frame": 0.16666666666666666,
            "value": {
              "__uuid__": "db3b1e76-a416-4add-8d82-64868cb67587"
            }
          },
          {
            "frame": 0.2,
            "value": {
              "__uuid__": "57704091-9ad5-4d6a-b30e-866e6d4adad4"
            }
          },
          {
            "frame": 0.23333333333333334,
            "value": {
              "__uuid__": "14588707-e3f8-4b35-9daa-dced502527fc"
            }
          },
          {
            "frame": 0.26666666666666666,
            "value": {
              "__uuid__": "57f4adec-0177-41f8-a503-7711bf8086b2"
            }
          },
          {
            "frame": 0.3,
            "value": {
              "__uuid__": "a0694512-81d2-42ee-a8de-5f69233c663c"
            }
          },
          {
            "frame": 0.3333333333333333,
            "value": {
              "__uuid__": "57f4adec-0177-41f8-a503-7711bf8086b2"
            }
          }
        ]
      }
    }
  },
  "events": []
}