{
  "__type__": "cc.AnimationClip",
  "_name": "roll",
  "_objFlags": 0,
  "_native": "",
  "_duration": 0.18333333333333332,
  "sample": 60,
  "speed": 0.4,
  "wrapMode": 1,
  "curveData": {
    "comps": {
      "cc.Sprite": {
        "spriteFrame": [
          {
            "frame": 0,
            "value": {
              "__uuid__": "1509ebf4-2095-4f9a-a131-34de28775c28"
            }
          },
          {
            "frame": 0.016666666666666666,
            "value": {
              "__uuid__": "bc328d00-b6e4-4449-ab77-3ea989fc8785"
            }
          },
          {
            "frame": 0.03333333333333333,
            "value": {
              "__uuid__": "ee40f890-b99b-428d-9514-e1451eb5e663"
            }
          },
          {
            "frame": 0.05,
            "value": {
              "__uuid__": "f86d7a55-5d91-4fec-9dab-54c11a07136d"
            }
          },
          {
            "frame": 0.06666666666666667,
            "value": {
              "__uuid__": "6ee04888-61b3-41b6-a938-4d65b738cf5f"
            }
          },
          {
            "frame": 0.08333333333333333,
            "value": {
              "__uuid__": "f13f06e4-eada-41c0-a6be-a03cebb88b0a"
            }
          },
          {
            "frame": 0.1,
            "value": {
              "__uuid__": "10e749ad-056f-486c-b699-d4c7944db613"
            }
          },
          {
            "frame": 0.11666666666666667,
            "value": {
              "__uuid__": "b4f8e4dd-9f67-4013-8c3c-f1bdc2780488"
            }
          },
          {
            "frame": 0.13333333333333333,
            "value": {
              "__uuid__": "10ec1f63-9493-4a06-ab1f-b50ab66eb74f"
            }
          },
          {
            "frame": 0.15,
            "value": {
              "__uuid__": "d94f21e7-83b6-4230-b8e0-ab6e7178b073"
            }
          },
          {
            "frame": 0.16666666666666666,
            "value": {
              "__uuid__": "841b41bc-b4c7-4c80-b063-e50ddbac0e57"
            }
          }
        ]
      }
    }
  },
  "events": []
}