{
  "__type__": "cc.AnimationClip",
  "_name": "fly2",
  "_objFlags": 0,
  "_native": "",
  "_duration": 2.066666666666667,
  "sample": 60,
  "speed": 1,
  "wrapMode": 2,
  "curveData": {
    "comps": {
      "cc.Sprite": {
        "spriteFrame": [
          {
            "frame": 0,
            "value": {
              "__uuid__": "f903d57a-9a34-4e83-9757-edb77ef292cb"
            }
          },
          {
            "frame": 1,
            "value": {
              "__uuid__": "90ded886-3651-4704-a807-12514d22bcec"
            }
          },
          {
            "frame": 2,
            "value": {
              "__uuid__": "90ded886-3651-4704-a807-12514d22bcec"
            }
          },
          {
            "frame": 2.05,
            "value": {
              "__uuid__": "f903d57a-9a34-4e83-9757-edb77ef292cb"
            }
          }
        ]
      }
    },
    "props": {
      "y": [
        {
          "frame": 0,
          "value": 579.494
        },
        {
          "frame": 1,
          "value": 429.721
        },
        {
          "frame": 2,
          "value": 562.279
        },
        {
          "frame": 2.05,
          "value": 588.102
        }
      ]
    }
  },
  "events": []
}