{
  "__type__": "cc.AnimationClip",
  "_name": "die",
  "_objFlags": 0,
  "_native": "",
  "_duration": 0.21666666666666667,
  "sample": 60,
  "speed": 0.4,
  "wrapMode": 1,
  "curveData": {
    "comps": {
      "cc.Sprite": {
        "spriteFrame": [
          {
            "frame": 0,
            "value": {
              "__uuid__": "4226e8c5-e574-4bd8-9763-b346b5e9b3f0"
            }
          },
          {
            "frame": 0.03333333333333333,
            "value": {
              "__uuid__": "9f27d0eb-717f-45eb-a44f-3d6557455f7c"
            }
          },
          {
            "frame": 0.06666666666666667,
            "value": {
              "__uuid__": "8cc4fa3f-2098-4d0a-89a5-577b3601e134"
            }
          },
          {
            "frame": 0.1,
            "value": {
              "__uuid__": "98802d2f-381c-4e00-b71c-27e1f97f7a93"
            }
          },
          {
            "frame": 0.13333333333333333,
            "value": {
              "__uuid__": "8ea406db-1984-45c2-aa6b-31e5ab69350c"
            }
          },
          {
            "frame": 0.16666666666666666,
            "value": {
              "__uuid__": "ff637e80-7b17-4b1c-8c94-4908da1811f1"
            }
          },
          {
            "frame": 0.2,
            "value": {
              "__uuid__": "ec8e8156-2676-4065-b83e-5718aed737a7"
            }
          }
        ]
      }
    }
  },
  "events": []
}